<svg width="60" height="60" viewBox="0 0 60 60" fill="none" xmlns="http://www.w3.org/2000/svg">
<path d="M6 52.917C6.26667 52.9169 7.06667 52.917 8.93333 52.917M48.9333 52.9739C50.7446 52.9827 52.4482 52.9915 54 53L48.9333 52.9739ZM48.9333 52.9739V48.5568M48.9333 52.9739C44.3216 52.9514 39.0118 52.929 33.7333 52.9122M48.9333 48.5568H53.4667V43.8523H38.2667V48.5568M48.9333 48.5568H38.2667M38.2667 48.5568H33.7333V52.9122M33.7333 52.9122C31.4427 52.905 29.1579 52.8988 26.9386 52.8941M26.9386 52.8941V49.8636H18.8M26.9386 52.8941C19.4053 52.8782 12.6266 52.8798 8.93333 52.917M8.93333 52.917V49.8636H15.8667M15.8667 49.8636V16.1477M15.8667 49.8636H18.8M15.8667 16.1477H18.8M15.8667 16.1477H12.1333M18.8 16.1477V49.8636M18.8 16.1477H47.3333M12.1333 16.1477H7.6L8.4 13.2727H12M12.1333 16.1477V31.5682M12.1333 31.5682H13.7333V33.6591M12.1333 31.5682H10.2667V33.6591M13.7333 33.6591H10.2667M13.7333 33.6591V35.75M10.2667 33.6591V35.75M10.2667 35.75H13.7333M10.2667 35.75V38.1023M13.7333 35.75V38.1023M13.7333 38.1023H10.2667M13.7333 38.1023V40.3239M10.2667 38.1023V40.3239M10.2667 40.3239V42.5454H13.7333V40.3239M10.2667 40.3239H13.7333M15.6 13.2727H18.8M15.6 13.2727V9.35227M15.6 13.2727H12M18.8 13.2727C18.8 12.0833 18.8 9.87116 18.8 8.82954M18.8 13.2727H46.5333M18.8 8.82954C18.8 8.57417 18.8 8.38916 18.8 8.30682C18.8 7.78409 18.2667 7 17.2 7C16.3467 7 15.7778 7.87121 15.6 8.30682V9.35227M18.8 8.82954L46.5333 13.2727M46.5333 13.2727H51.6L52.4 16.1477H47.3333M15.6 9.35227L12 13.2727M47.3333 16.1477V28.4318M47.3333 28.4318H48.9333L47.8667 33.1364H47.2M47.3333 28.4318H45.4667L46.5333 33.1364H47.2M47.2 33.1364V34.7045C47.4222 34.8788 47.8667 35.3318 47.8667 35.75C47.8667 36.2727 47.6 36.7954 46.2667 36.2727" stroke="#E84244" stroke-width="1.5"/>
</svg>
