<svg width="60" height="60" viewBox="0 0 60 60" fill="none" xmlns="http://www.w3.org/2000/svg">
<path d="M7 49.5434V53H53V49.5434M7 49.5434V46.0867L53 7V12.052M7 49.5434C7.74927 49.5434 8.53515 49.5434 9.35227 49.5434M53 49.5434V46.0867M53 49.5434C53 49.5434 25.2572 49.5434 9.35227 49.5434M53 46.0867V12.052M53 46.0867H49.8636M13.2727 46.0867L9.35227 49.5434M13.2727 46.0867H30M13.2727 46.0867L30 31.7563M53 12.052L49.8636 14.739M49.8636 46.0867V43.6936M49.8636 46.0867H47.5114M49.8636 14.739L34.4432 27.9498M49.8636 14.739V43.6936M34.4432 27.9498L49.8636 43.6936M34.4432 27.9498L31.8295 30.1889M47.5114 46.0867L33.1364 31.5137M47.5114 46.0867H33.1364M31.8295 30.1889L33.1364 31.5137M31.8295 30.1889L30 31.7563M33.1364 31.5137V46.0867M33.1364 46.0867H30M30 46.0867V31.7563" stroke="#E84244" stroke-width="1.5"/>
</svg>
