<svg width="231" height="129" viewBox="0 0 231 129" fill="none" xmlns="http://www.w3.org/2000/svg">
<path d="M73.0931 127.851L89.0963 127.7L150.903 15.1597L214.836 126.508L230.839 126.356L158.775 1.37645L142.772 1.52815L73.0931 127.851Z" fill="url(#paint0_linear)"/>
<path d="M158.586 1.29395L142.583 1.44565L80.7757 113.986L16.8433 2.63756L0.840122 2.78926L72.8066 127.879L89.1072 127.879L158.586 1.29395Z" fill="url(#paint1_linear)"/>
<defs>
<linearGradient id="paint0_linear" x1="150.773" y1="1.4523" x2="151.964" y2="127.104" gradientUnits="userSpaceOnUse">
<stop stop-color="#544F9C"/>
<stop offset="1" stop-color="#E84244"/>
</linearGradient>
<linearGradient id="paint1_linear" x1="3.15888" y1="6.20164" x2="157.475" y2="4.73679" gradientUnits="userSpaceOnUse">
<stop stop-color="#F7F6FA"/>
<stop offset="1" stop-color="#ACABBF"/>
</linearGradient>
</defs>
</svg>
