<svg width="202" height="398" viewBox="0 0 202 398" fill="none" xmlns="http://www.w3.org/2000/svg">
<path d="M134.691 0.296875L127.536 21.4297L187.067 188.993L71.3154 187.474L64.1602 208.607L194.221 209.912L201.377 188.779L134.691 0.296875Z" fill="url(#paint0_linear)"/>
<path d="M70.7709 188.01L63.6156 209.143L123.147 376.707L7.39552 375.187L0.240234 396.32L130.301 397.625L137.457 376.492L70.7709 188.01Z" fill="url(#paint1_linear)"/>
<defs>
<linearGradient id="paint0_linear" x1="199.388" y1="204.195" x2="65.1545" y2="204.195" gradientUnits="userSpaceOnUse">
<stop stop-color="#F7F6FA"/>
<stop offset="1" stop-color="#ACABBF"/>
</linearGradient>
<linearGradient id="paint1_linear" x1="135.468" y1="391.908" x2="1.23456" y2="391.908" gradientUnits="userSpaceOnUse">
<stop stop-color="#F7F6FA"/>
<stop offset="1" stop-color="#ACABBF"/>
</linearGradient>
</defs>
</svg>
