<svg width="10" height="6" viewBox="0 0 10 6" fill="none" xmlns="http://www.w3.org/2000/svg">
    <path fill-rule="evenodd" clip-rule="evenodd" d="M0.474265 1.26634e-07C0.206994 7.99031e-08 0.0731435 0.323143 0.262133 0.512132L4.64645 4.89645C4.84171 5.09171 5.15829 5.09171 5.35355 4.89645L9.73787 0.512134C9.92686 0.323144 9.79301 1.75598e-06 9.52574 1.70924e-06L0.474265 1.26634e-07Z" fill="#E84244"/>
</svg>
