<svg width="13" height="10" viewBox="0 0 13 10" fill="none" xmlns="http://www.w3.org/2000/svg">
<path d="M6.17166 6.85022e-05C6.2346 0.00147474 6.29333 0.023198 6.34978 0.0635446L12.0498 4.75101C12.1809 4.86072 12.1995 5.06317 12.1013 5.19535C12.0046 5.32563 11.7987 5.34649 11.6748 5.24417L6.16228 0.712954L0.64978 5.24417C0.525835 5.34649 0.325645 5.32483 0.227905 5.19535C0.130885 5.06683 0.141325 4.85334 0.27478 4.75101L2.41228 2.99321V0.312566C2.41229 0.229689 2.4439 0.150204 2.50016 0.0916015C2.55642 0.0329986 2.63272 7.67887e-05 2.71228 6.85022e-05H3.91228C3.99184 7.67887e-05 4.06814 0.0329986 4.1244 0.0916015C4.18066 0.150204 4.21227 0.229689 4.21228 0.312566V1.51373L5.97478 0.0635446C6.04155 0.0177278 6.10871 -0.00129868 6.17166 6.85022e-05ZM3.61228 0.625064H3.01228V2.50005L3.61228 2.00689V0.625064ZM9.91228 4.20414L10.5123 4.6973V9.6875C10.5123 9.77038 10.4807 9.84986 10.4244 9.90847C10.3681 9.96707 10.2918 9.99999 10.2123 10H7.36228C7.28272 9.99999 7.20642 9.96707 7.15016 9.90847C7.0939 9.84986 7.06229 9.77038 7.06228 9.6875V7.81252C7.06228 7.28774 6.66607 6.87502 6.16228 6.87502C5.65849 6.87502 5.26228 7.28774 5.26228 7.81252V9.6875C5.26227 9.77038 5.23066 9.84986 5.1744 9.90847C5.11814 9.96707 5.04184 9.99999 4.96228 10H2.11228C2.03272 9.99999 1.95642 9.96707 1.90016 9.90847C1.8439 9.84986 1.81229 9.77038 1.81228 9.6875V4.6973L2.41228 4.20414V9.37501H4.66228V7.81252C4.66228 6.9523 5.33647 6.25003 6.16228 6.25003C6.98809 6.25003 7.66228 6.9523 7.66228 7.81252V9.37501H9.91228V4.20414Z" fill="#E84244"/>
</svg>
