<svg width="10" height="10" viewBox="0 0 10 10" fill="none" xmlns="http://www.w3.org/2000/svg">
<path fill-rule="evenodd" clip-rule="evenodd" d="M9.99969 7.48692V8.99232C10.0008 9.27491 9.88256 9.54488 9.67391 9.73592C9.46527 9.92696 9.18559 10.0214 8.90359 9.99592C7.3564 9.82814 5.87021 9.3005 4.56445 8.45539C3.34961 7.68496 2.31963 6.65703 1.54767 5.44459C0.697933 4.13549 0.169124 2.64504 0.00408462 1.09398C-0.0213201 0.813404 0.0726017 0.535096 0.262907 0.327033C0.453213 0.118971 0.722377 0.000314634 1.00465 4.93365e-05H2.51304C3.01778 -0.00490853 3.44799 0.36434 3.51863 0.863147C3.5823 1.34491 3.70037 1.81794 3.87059 2.27321C4.00873 2.63996 3.92038 3.05341 3.64433 3.33201L3.00578 3.96929C3.72154 5.22558 4.76379 6.26576 6.02256 6.9801L6.66111 6.34281C6.94026 6.06732 7.35453 5.97914 7.72202 6.117C8.17819 6.28689 8.65216 6.40472 9.13487 6.46826C9.64047 6.53945 10.0124 6.97749 9.99969 7.48692Z" fill="#E84244"/>
</svg>
