<svg width="24" height="24" viewBox="0 0 24 24" fill="none" xmlns="http://www.w3.org/2000/svg">
<path d="M11.6497 2.50734C12.1884 2.25431 12.8117 2.25431 13.3504 2.50733L18.8504 5.09084C19.5521 5.42047 20.0001 6.12597 20 6.90128L19.9997 10.6444C19.9997 15.2604 17.0363 19.5393 13.0096 20.8831C12.679 20.9934 12.3211 20.9934 11.9904 20.8832C7.96378 19.5402 5.0005 15.2604 5.0005 10.6444L5.00013 6.90127C5.00005 6.12597 5.44806 5.42047 6.1498 5.09084L11.6497 2.50734Z" stroke="#0D0D0D" stroke-width="1.5"/>
<path d="M8.77389 11.8148C8.63394 11.6748 8.40703 11.6748 8.26708 11.8148V11.8148C8.12713 11.9547 8.12713 12.1816 8.26708 12.3216L10.9131 14.9677C10.9912 15.0458 11.1179 15.0458 11.196 14.9677L17.3898 8.77389C17.5297 8.63394 17.5297 8.40704 17.3898 8.26708V8.26708C17.2498 8.12713 17.0229 8.12713 16.8829 8.26708L11.0546 14.0955L8.77389 11.8148Z" fill="#0D0D0D" stroke="#0D0D0D"/>
</svg>
